{"code":200,"meta":{"pagination":{"total":2235,"pages":112,"page":1,"limit":20}},"data":[{"id":2268,"name":"Triloki Nath Abbott","email":"nath_abbott_triloki@quitzon-effertz.biz","gender":"male","status":"active"},{"id":2267,"name":"Fr. Deeptiman Asan","email":"deeptiman_asan_fr@hagenes-stokes.name","gender":"male","status":"active"},{"id":2266,"name":"Chidambar Gandhi","email":"gandhi_chidambar@vonrueden-schmidt.biz","gender":"male","status":"inactive"},{"id":2265,"name":"Aslesha Khanna","email":"aslesha_khanna@doyle.info","gender":"female","status":"inactive"},{"id":2264,"name":"Pres. Manjusha Sinha","email":"sinha_pres_manjusha@shanahan.name","gender":"male","status":"inactive"},{"id":2263,"name":"Bhagavaan Singh","email":"bhagavaan_singh@prohaska.com","gender":"male","status":"active"},{"id":2262,"name":"Harit Bhattathiri DVM","email":"dvm_bhattathiri_harit@kirlin.net","gender":"male","status":"active"},{"id":2261,"name":"Prof. Kamla Sharma","email":"sharma_prof_kamla@pfannerstill-larkin.org","gender":"male","status":"active"},{"id":2260,"name":"Kanchan Dubashi","email":"kanchan_dubashi@padberg-kuhic.info","gender":"male","status":"inactive"},{"id":2259,"name":"Prof. Anwesha Devar","email":"prof_anwesha_devar@hickle.net","gender":"male","status":"active"},{"id":2258,"name":"Agnimitra Kaur","email":"agnimitra_kaur@luettgen-prosacco.org","gender":"female","status":"inactive"},{"id":2257,"name":"Deb Banerjee","email":"deb_banerjee@dare.co","gender":"female","status":"active"},{"id":2256,"name":"Tapan Chaturvedi VM","email":"vm_tapan_chaturvedi@champlin-bayer.co","gender":"male","status":"inactive"},{"id":2255,"name":"Balachandra Sharma","email":"sharma_balachandra@denesik.org","gender":"male","status":"active"},{"id":2254,"name":"Bakula Rana","email":"bakula_rana@kulas-grady.co","gender":"male","status":"active"},{"id":2253,"name":"Tanya Nambeesan","email":"tanya_nambeesan@boehm.co","gender":"male","status":"inactive"},{"id":2251,"name":"Chidananda Bandopadhyay","email":"bandopadhyay_chidananda@dubuque-krajcik.info","gender":"female","status":"inactive"},{"id":2250,"name":"Mrs. Maheswar Mehra","email":"mehra_mrs_maheswar@reinger.biz","gender":"female","status":"inactive"},{"id":2249,"name":"Msgr. Ravi Adiga","email":"ravi_adiga_msgr@marks.org","gender":"female","status":"active"},{"id":2248,"name":"Rep. Chandrakin Dwivedi","email":"dwivedi_rep_chandrakin@predovic.co","gender":"male","status":"active"}]}